src/icotools/icosoc/examples/ev_test_01/debug.vcd
$var event 1 ! clock $end
$var wire 1 n0 spiflash_sclk $end
$var wire 1 n1 spiflash_mosi $end
$var wire 1 n2 spiflash_miso $end
$var wire 1 n3 spiflash_cs $end
$var wire 1 n4 resetn $end
$var wire 1 n5 mem_wstrb[3] $end
$var wire 1 n6 mem_wstrb[2] $end
$var wire 1 n7 mem_wstrb[1] $end
$var wire 1 n8 mem_wstrb[0] $end
$var wire 1 n9 mem_valid $end
$var wire 1 n10 mem_ready $end
$var wire 1 n11 mem_instr $end
$var wire 1 n12 mem_addr_midbits $end
$var wire 1 n13 mem_addr[31] $end
$var wire 1 n14 mem_addr[30] $end
$var wire 1 n15 mem_addr[29] $end
$var wire 1 n16 mem_addr[28] $end
$var wire 1 n17 mem_addr[17] $end
$var wire 1 n18 mem_addr[16] $end
$var wire 1 n19 mem_addr[15] $end
$var wire 1 n20 mem_addr[14] $end
$var wire 1 n21 mem_addr[13] $end
$var wire 1 n22 mem_addr[12] $end
$var wire 1 n23 mem_addr[11] $end
$var wire 1 n24 mem_addr[10] $end
$var wire 1 n25 mem_addr[9] $end
$var wire 1 n26 mem_addr[8] $end
$var wire 1 n27 mem_addr[7] $end
$var wire 1 n28 mem_addr[6] $end
$var wire 1 n29 mem_addr[5] $end
$var wire 1 n30 mem_addr[4] $end
$var wire 1 n31 mem_addr[3] $end
$var wire 1 n32 mem_addr[2] $end
$var wire 1 n33 mem_addr[1] $end
$var wire 1 n34 mem_addr[0] $end
$var wire 1 n35 cpu_trap $end
$enddefinitions $end
#0
1!
b1 n0
b0 n1
b0 n2
b0 n3
b0 n4
b1 n5
b0 n6
b1 n7
b0 n8
b0 n9
b0 n10
b0 n11
b0 n12
b0 n13
b1 n14
b1 n15
b0 n16
b1 n17
b1 n18
b1 n19
b0 n20
b1 n21
b1 n22
b0 n23
b1 n24
b1 n25
b0 n26
b0 n27
b1 n28
b0 n29
b0 n30
b0 n31
b1 n32
b0 n33
b0 n34
b0 n35
#1
1!
b0 n0
b0 n1
b0 n2
b0 n3
b0 n4
b0 n5
b1 n6
b1 n7
b0 n8
b1 n9
b1 n10
b1 n11
b0 n12
b1 n13
b1 n14
b0 n15
b1 n16
b1 n17
b0 n18
b0 n19
b1 n20
b0 n21
b0 n22
b0 n23
b1 n24
b0 n25
b0 n26
b0 n27
b0 n28
b1 n29
b1 n30
b1 n31
b0 n32
b0 n33
b0 n34
b0 n35
#2
1!
b0 n0
b1 n1
b1 n2
b1 n3
b0 n4
b1 n5
b1 n6
b0 n7
b1 n8
b1 n9
b0 n10
b0 n11
b1 n12
b0 n13
b0 n14
b0 n15
b1 n16
b0 n17
b0 n18
b0 n19
b0 n20
b0 n21
b0 n22
b1 n23
b0 n24
b0 n25
b0 n26
b0 n27
b0 n28
b0 n29
b1 n30
b1 n31
b0 n32
b1 n33
b1 n34
b1 n35
#3
1!
b1 n0
b1 n1
b0 n2
b0 n3
b1 n4
b0 n5
b0 n6
b0 n7
b1 n8
b0 n9
b0 n10
b0 n11
b0 n12
b0 n13
b0 n14
b1 n15
b0 n16
b0 n17
b0 n18
b0 n19
b0 n20
b0 n21
b1 n22
b1 n23
b0 n24
b1 n25
b1 n26
b1 n27
b0 n28
b1 n29
b1 n30
b0 n31
b1 n32
b1 n33
b0 n34
b0 n35
#4
1!
b1 n0
b0 n1
b0 n2
b0 n3
b0 n4
b0 n5
b0 n6
b1 n7
b0 n8
b0 n9
b0 n10
b0 n11
b0 n12
b0 n13
b1 n14
b1 n15
b0 n16
b1 n17
b1 n18
b1 n19
b0 n20
b1 n21
b1 n22
b0 n23
b1 n24
b1 n25
b0 n26
b0 n27
b1 n28
b0 n29
b0 n30
b0 n31
b1 n32
b0 n33
b0 n34
b0 n35
#5
1!
b0 n0
b0 n1
b0 n2
b0 n3
b0 n4
b0 n5
b1 n6
b1 n7
b0 n8
b1 n9
b1 n10
b1 n11
b0 n12
b1 n13
b1 n14
b0 n15
b1 n16
b1 n17
b0 n18
b0 n19
b1 n20
b0 n21
b0 n22
b0 n23
b1 n24
b0 n25
b0 n26
b0 n27
b0 n28
b0 n29
b0 n30
b1 n31
b0 n32
b0 n33
b0 n34
b0 n35
#6
1!
b0 n0
b1 n1
b1 n2
b1 n3
b0 n4
b1 n5
b1 n6
b0 n7
b1 n8
b1 n9
b0 n10
b0 n11
b1 n12
b0 n13
b0 n14
b0 n15
b1 n16
b0 n17
b0 n18
b0 n19
b0 n20
b1 n21
b0 n22
b1 n23
b0 n24
b0 n25
b0 n26
b0 n27
b0 n28
b0 n29
b1 n30
b1 n31
b0 n32
b1 n33
b1 n34
b1 n35
#7
1!
b1 n0
b1 n1
b0 n2
b1 n3
b0 n4
b0 n5
b0 n6
b0 n7
b1 n8
b0 n9
b0 n10
b0 n11
b0 n12
b1 n13
b0 n14
b1 n15
b0 n16
b0 n17
b0 n18
b0 n19
b0 n20
b0 n21
b1 n22
b1 n23
b0 n24
b1 n25
b1 n26
b1 n27
b0 n28
b1 n29
b1 n30
b0 n31
b1 n32
b1 n33
b0 n34
b1 n35
#8
1!
b1 n0
b0 n1
b0 n2
b0 n3
b0 n4
b1 n5
b0 n6
b1 n7
b0 n8
b0 n9
b0 n10
b0 n11
b0 n12
b0 n13
b1 n14
b1 n15
b0 n16
b1 n17
b1 n18
b1 n19
b0 n20
b1 n21
b1 n22
b0 n23
b1 n24
b1 n25
b0 n26
b1 n27
b0 n28
b0 n29
b0 n30
b0 n31
b1 n32
b0 n33
b0 n34
b0 n35
#9
1!
b0 n0
b0 n1
b0 n2
b0 n3
b0 n4
b0 n5
b1 n6
b1 n7
b0 n8
b1 n9
b1 n10
b1 n11
b0 n12
b1 n13
b1 n14
b0 n15
b1 n16
b1 n17
b0 n18
b1 n19
b0 n20
b0 n21
b0 n22
b0 n23
b1 n24
b0 n25
b0 n26
b0 n27
b0 n28
b0 n29
b0 n30
b1 n31
b0 n32
b0 n33
b0 n34
b0 n35
#10
1!
b0 n0
b1 n1
b1 n2
b1 n3
b0 n4
b1 n5
b1 n6
b0 n7
b1 n8
b1 n9
b0 n10
b1 n11
b0 n12
b0 n13
b0 n14
b0 n15
b1 n16
b0 n17
b0 n18
b0 n19
b0 n20
b1 n21
b0 n22
b1 n23
b0 n24
b0 n25
b0 n26
b0 n27
b0 n28
b0 n29
b1 n30
b1 n31
b0 n32
b1 n33
b1 n34
b1 n35
#11
1!
b1 n0
b1 n1
b0 n2
b0 n3
b1 n4
b0 n5
b0 n6
b0 n7
b1 n8
b0 n9
b0 n10
b0 n11
b0 n12
b1 n13
b0 n14
b1 n15
b0 n16
b0 n17
b0 n18
b0 n19
b0 n20
b0 n21
b1 n22
b1 n23
b0 n24
b1 n25
b1 n26
b1 n27
b0 n28
b1 n29
b1 n30
b0 n31
b1 n32
b1 n33
b0 n34
b0 n35
#12
1!
b1 n0
b0 n1
b0 n2
b0 n3
b0 n4
b1 n5
b0 n6
b1 n7
b0 n8
b0 n9
b0 n10
b0 n11
b0 n12
b0 n13
b1 n14
b1 n15
b0 n16
b1 n17
b1 n18
b1 n19
b0 n20
b1 n21
b1 n22
b0 n23
b1 n24
b1 n25
b0 n26
b0 n27
b1 n28
b0 n29
b0 n30
b0 n31
b1 n32
b0 n33
b0 n34
b0 n35
#13
1!
b0 n0
b0 n1
b0 n2
b0 n3
b0 n4
b0 n5
b1 n6
b1 n7
b0 n8
b1 n9
b1 n10
b1 n11
b0 n12
b1 n13
b1 n14
b0 n15
b1 n16
b1 n17
b0 n18
b0 n19
b1 n20
b0 n21
b0 n22
b0 n23
b1 n24
b0 n25
b0 n26
b0 n27
b0 n28
b0 n29
b0 n30
b1 n31
b0 n32
b0 n33
b0 n34
b0 n35
#14
1!
b0 n0
b1 n1
b1 n2
b1 n3
b0 n4
b1 n5
b1 n6
b0 n7
b1 n8
b1 n9
b0 n10
b0 n11
b1 n12
b0 n13
b0 n14
b0 n15
b1 n16
b0 n17
b0 n18
b0 n19
b0 n20
b0 n21
b0 n22
b1 n23
b0 n24
b0 n25
b0 n26
b0 n27
b0 n28
b0 n29
b1 n30
b1 n31
b0 n32
b1 n33
b1 n34
b1 n35
#15
1!
b1 n0
b1 n1
b0 n2
b0 n3
b1 n4
b0 n5
b0 n6
b0 n7
b1 n8
b0 n9
b0 n10
b0 n11
b0 n12
b0 n13
b0 n14
b1 n15
b0 n16
b0 n17
b0 n18
b0 n19
b0 n20
b0 n21
b1 n22
b1 n23
b0 n24
b1 n25
b1 n26
b1 n27
b0 n28
b1 n29
b1 n30
b0 n31
b1 n32
b1 n33
b0 n34
b0 n35
#16
1!
b1 n0
b0 n1
b0 n2
b0 n3
b0 n4
b0 n5
b0 n6
b1 n7
b0 n8
b0 n9
b0 n10
b0 n11
b0 n12
b0 n13
b1 n14
b1 n15
b0 n16
b1 n17
b1 n18
b1 n19
b0 n20
b1 n21
b1 n22
b0 n23
b1 n24
b1 n25
b0 n26
b0 n27
b1 n28
b0 n29
b0 n30
b0 n31
b1 n32
b0 n33
b0 n34
b0 n35
#17
1!
b0 n0
b0 n1
b0 n2
b0 n3
b0 n4
b0 n5
b1 n6
b1 n7
b0 n8
b1 n9
b1 n10
b1 n11
b0 n12
b1 n13
b1 n14
b0 n15
b1 n16
b1 n17
b0 n18
b0 n19
b1 n20
b0 n21
b0 n22
b0 n23
b1 n24
b0 n25
b0 n26
b0 n27
b0 n28
b1 n29
b0 n30
b1 n31
b0 n32
b0 n33
b0 n34
b0 n35
#18
1!
b0 n0
b1 n1
b1 n2
b1 n3
b0 n4
b1 n5
b1 n6
b0 n7
b1 n8
b1 n9
b0 n10
b1 n11
b0 n12
b0 n13
b0 n14
b0 n15
b1 n16
b0 n17
b0 n18
b0 n19
b0 n20
b1 n21
b0 n22
b1 n23
b0 n24
b0 n25
b0 n26
b0 n27
b0 n28
b0 n29
b1 n30
b1 n31
b0 n32
b1 n33
b1 n34
b1 n35
#19
1!
b1 n0
b1 n1
b0 n2
b1 n3
b0 n4
b0 n5
b0 n6
b0 n7
b1 n8
b0 n9
b0 n10
b0 n11
b0 n12
b1 n13
b0 n14
b1 n15
b0 n16
b0 n17
b0 n18
b0 n19
b0 n20
b0 n21
b1 n22
b1 n23
b0 n24
b1 n25
b1 n26
b1 n27
b0 n28
b1 n29
b1 n30
b0 n31
b1 n32
b1 n33
b0 n34
b1 n35
#20
1!
b1 n0
b0 n1
b0 n2
b0 n3
b0 n4
b1 n5
b1 n6
b1 n7
b0 n8
b0 n9
b0 n10
b0 n11
b0 n12
b0 n13
b1 n14
b1 n15
b0 n16
b1 n17
b1 n18
b1 n19
b0 n20
b1 n21
b1 n22
b0 n23
b1 n24
b1 n25
b0 n26
b1 n27
b0 n28
b0 n29
b0 n30
b0 n31
b1 n32
b0 n33
b0 n34
b0 n35
#21
1!
b0 n0
b0 n1
b0 n2
b0 n3
b0 n4
b0 n5
b1 n6
b1 n7
b0 n8
b1 n9
b1 n10
b1 n11
b0 n12
b1 n13
b1 n14
b0 n15
b1 n16
b1 n17
b0 n18
b1 n19
b0 n20
b0 n21
b0 n22
b0 n23
b1 n24
b0 n25
b0 n26
b0 n27
b0 n28
b1 n29
b0 n30
b1 n31
b0 n32
b0 n33
b0 n34
b0 n35
#22
1!
b0 n0
b1 n1
b1 n2
b1 n3
b0 n4
b1 n5
b1 n6
b0 n7
b1 n8
b1 n9
b0 n10
b0 n11
b1 n12
b0 n13
b0 n14
b0 n15
b1 n16
b0 n17
b0 n18
b0 n19
b0 n20
b1 n21
b0 n22
b1 n23
b0 n24
b0 n25
b0 n26
b0 n27
b0 n28
b0 n29
b1 n30
b1 n31
b0 n32
b1 n33
b1 n34
b1 n35
#23
1!
b1 n0
b1 n1
b0 n2
b0 n3
b1 n4
b0 n5
b0 n6
b0 n7
b1 n8
b0 n9
b0 n10
b0 n11
b0 n12
b1 n13
b0 n14
b1 n15
b0 n16
b0 n17
b0 n18
b0 n19
b0 n20
b0 n21
b1 n22
b1 n23
b0 n24
b1 n25
b1 n26
b1 n27
b0 n28
b1 n29
b1 n30
b0 n31
b1 n32
b1 n33
b0 n34
b0 n35
#24
1!
b1 n0
b0 n1
b0 n2
b0 n3
b0 n4
b1 n5
b1 n6
b1 n7
b0 n8
b0 n9
b0 n10
b0 n11
b0 n12
b0 n13
b1 n14
b1 n15
b0 n16
b1 n17
b1 n18
b1 n19
b0 n20
b1 n21
b1 n22
b0 n23
b1 n24
b1 n25
b0 n26
b0 n27
b1 n28
b0 n29
b0 n30
b0 n31
b1 n32
b0 n33
b0 n34
b0 n35
#25
1!
b0 n0
b0 n1
b0 n2
b0 n3
b0 n4
b0 n5
b1 n6
b1 n7
b0 n8
b1 n9
b1 n10
b1 n11
b0 n12
b1 n13
b1 n14
b0 n15
b1 n16
b1 n17
b0 n18
b0 n19
b1 n20
b0 n21
b0 n22
b0 n23
b1 n24
b0 n25
b0 n26
b0 n27
b0 n28
b0 n29
b0 n30
b1 n31
b0 n32
b0 n33
b0 n34
b0 n35
#26
1!
b0 n0
b1 n1
b1 n2
b1 n3
b0 n4
b1 n5
b1 n6
b0 n7
b1 n8
b1 n9
b0 n10
b0 n11
b1 n12
b0 n13
b0 n14
b0 n15
b1 n16
b0 n17
b0 n18
b0 n19
b0 n20
b0 n21
b0 n22
b1 n23
b0 n24
b0 n25
b0 n26
b0 n27
b0 n28
b0 n29
b1 n30
b1 n31
b0 n32
b1 n33
b1 n34
b1 n35
#27
1!
b1 n0
b1 n1
b0 n2
b0 n3
b1 n4
b0 n5
b0 n6
b0 n7
b1 n8
b0 n9
b0 n10
b0 n11
b0 n12
b0 n13
b0 n14
b1 n15
b0 n16
b0 n17
b0 n18
b0 n19
b0 n20
b0 n21
b1 n22
b1 n23
b0 n24
b1 n25
b1 n26
b1 n27
b0 n28
b1 n29
b1 n30
b0 n31
b1 n32
b1 n33
b0 n34
b0 n35
#28
1!
b1 n0
b0 n1
b0 n2
b0 n3
b0 n4
b0 n5
b0 n6
b1 n7
b0 n8
b0 n9
b0 n10
b0 n11
b0 n12
b0 n13
b1 n14
b1 n15
b0 n16
b1 n17
b1 n18
b1 n19
b0 n20
b1 n21
b1 n22
b0 n23
b1 n24
b1 n25
b0 n26
b0 n27
b1 n28
b0 n29
b0 n30
b0 n31
b1 n32
b0 n33
b0 n34
b0 n35
#29
1!
b0 n0
b0 n1
b0 n2
b0 n3
b0 n4
b0 n5
b1 n6
b1 n7
b0 n8
b1 n9
b1 n10
b1 n11
b0 n12
b1 n13
b1 n14
b0 n15
b1 n16
b1 n17
b0 n18
b1 n19
b0 n20
b0 n21
b0 n22
b0 n23
b1 n24
b0 n25
b0 n26
b0 n27
b0 n28
b1 n29
b0 n30
b1 n31
b0 n32
b0 n33
b0 n34
b0 n35
#30
1!
b0 n0
b1 n1
b1 n2
b1 n3
b0 n4
b1 n5
b1 n6
b0 n7
b1 n8
b1 n9
b0 n10
b1 n11
b0 n12
b0 n13
b0 n14
b0 n15
b1 n16
b0 n17
b0 n18
b0 n19
b0 n20
b1 n21
b0 n22
b1 n23
b0 n24
b0 n25
b0 n26
b0 n27
b0 n28
b0 n29
b1 n30
b1 n31
b0 n32
b1 n33
b1 n34
b1 n35
#31
1!
b1 n0
b1 n1
b0 n2
b1 n3
b0 n4
b0 n5
b0 n6
b0 n7
b1 n8
b0 n9
b0 n10
b0 n11
b0 n12
b1 n13
b1 n14
b1 n15
b0 n16
b0 n17
b0 n18
b0 n19
b0 n20
b0 n21
b1 n22
b1 n23
b0 n24
b1 n25
b1 n26
b1 n27
b0 n28
b1 n29
b1 n30
b0 n31
b1 n32
b1 n33
b0 n34
b1 n35
#32
1!
b1 n0
b0 n1
b0 n2
b0 n3
b0 n4
b0 n5
b0 n6
b1 n7
b0 n8
b0 n9
b0 n10
b0 n11
b0 n12
b0 n13
b1 n14
b1 n15
b0 n16
b1 n17
b1 n18
b1 n19
b0 n20
b1 n21
b1 n22
b0 n23
b1 n24
b1 n25
b0 n26
b1 n27
b0 n28
b0 n29
b0 n30
b0 n31
b1 n32
b0 n33
b0 n34
b0 n35
#33
1!
b0 n0
b0 n1
b0 n2
b0 n3
b0 n4
b0 n5
b1 n6
b1 n7
b0 n8
b1 n9
b1 n10
b1 n11
b0 n12
b1 n13
b1 n14
b0 n15
b1 n16
b1 n17
b0 n18
b0 n19
b1 n20
b0 n21
b0 n22
b0 n23
b1 n24
b0 n25
b0 n26
b0 n27
b0 n28
b1 n29
b0 n30
b1 n31
b0 n32
b0 n33
b0 n34
b0 n35
#34
1!
b0 n0
b1 n1
b1 n2
b1 n3
b0 n4
b1 n5
b1 n6
b0 n7
b1 n8
b1 n9
b0 n10
b0 n11
b1 n12
b0 n13
b0 n14
b0 n15
b1 n16
b0 n17
b0 n18
b0 n19
b0 n20
b1 n21
b0 n22
b1 n23
b0 n24
b0 n25
b0 n26
b0 n27
b0 n28
b0 n29
b1 n30
b1 n31
b0 n32
b1 n33
b1 n34
b1 n35
#35
1!
b1 n0
b1 n1
b0 n2
b0 n3
b1 n4
b0 n5
b0 n6
b0 n7
b1 n8
b0 n9
b0 n10
b0 n11
b0 n12
b1 n13
b1 n14
b1 n15
b0 n16
b0 n17
b0 n18
b0 n19
b0 n20
b0 n21
b1 n22
b1 n23
b0 n24
b1 n25
b1 n26
b1 n27
b0 n28
b1 n29
b1 n30
b0 n31
b1 n32
b1 n33
b0 n34
b0 n35
#36
1!
b1 n0
b0 n1
b0 n2
b0 n3
b0 n4
b0 n5
b0 n6
b1 n7
b0 n8
b0 n9
b0 n10
b0 n11
b0 n12
b0 n13
b1 n14
b1 n15
b0 n16
b1 n17
b1 n18
b1 n19
b0 n20
b1 n21
b1 n22
b0 n23
b1 n24
b1 n25
b0 n26
b0 n27
b1 n28
b0 n29
b0 n30
b0 n31
b1 n32
b0 n33
b0 n34
b0 n35
#37
1!
b0 n0
b0 n1
b0 n2
b0 n3
b0 n4
b0 n5
b1 n6
b1 n7
b0 n8
b1 n9
b1 n10
b1 n11
b0 n12
b1 n13
b1 n14
b0 n15
b1 n16
b1 n17
b0 n18
b0 n19
b1 n20
b0 n21
b0 n22
b0 n23
b1 n24
b0 n25
b0 n26
b0 n27
b0 n28
b0 n29
b0 n30
b1 n31
b0 n32
b0 n33
b0 n34
b0 n35
#38
1!
b0 n0
b1 n1
b1 n2
b1 n3
b0 n4
b1 n5
b1 n6
b0 n7
b1 n8
b1 n9
b0 n10
b0 n11
b1 n12
b0 n13
b0 n14
b0 n15
b1 n16
b0 n17
b0 n18
b0 n19
b0 n20
b0 n21
b0 n22
b1 n23
b0 n24
b0 n25
b0 n26
b0 n27
b0 n28
b0 n29
b1 n30
b1 n31
b0 n32
b1 n33
b1 n34
b1 n35
#39
1!
b1 n0
b1 n1
b0 n2
b0 n3
b1 n4
b0 n5
b0 n6
b0 n7
b1 n8
b0 n9
b0 n10
b0 n11
b0 n12
b0 n13
b0 n14
b1 n15
b0 n16
b0 n17
b0 n18
b0 n19
b0 n20
b0 n21
b1 n22
b1 n23
b0 n24
b1 n25
b1 n26
b1 n27
b0 n28
b1 n29
b1 n30
b0 n31
b1 n32
b1 n33
b0 n34
b0 n35
#40
1!
b1 n0
b0 n1
b0 n2
b0 n3
b0 n4
b1 n5
b0 n6
b1 n7
b0 n8
b0 n9
b0 n10
b0 n11
b0 n12
b0 n13
b1 n14
b1 n15
b0 n16
b1 n17
b1 n18
b1 n19
b0 n20
b1 n21
b1 n22
b0 n23
b1 n24
b1 n25
b0 n26
b1 n27
b0 n28
b0 n29
b0 n30
b0 n31
b1 n32
b0 n33
b0 n34
b0 n35
#41
1!
b0 n0
b0 n1
b0 n2
b0 n3
b0 n4
b0 n5
b1 n6
b1 n7
b0 n8
b1 n9
b1 n10
b1 n11
b0 n12
b1 n13
b1 n14
b0 n15
b1 n16
b1 n17
b0 n18
b1 n19
b0 n20
b0 n21
b0 n22
b0 n23
b1 n24
b0 n25
b0 n26
b0 n27
b0 n28
b1 n29
b0 n30
b1 n31
b0 n32
b0 n33
b0 n34
b0 n35
#42
1!
b0 n0
b1 n1
b1 n2
b1 n3
b0 n4
b1 n5
b1 n6
b0 n7
b1 n8
b1 n9
b0 n10
b1 n11
b0 n12
b0 n13
b0 n14
b0 n15
b1 n16
b0 n17
b0 n18
b0 n19
b0 n20
b1 n21
b1 n22
b1 n23
b0 n24
b0 n25
b0 n26
b0 n27
b0 n28
b0 n29
b1 n30
b1 n31
b0 n32
b1 n33
b1 n34
b1 n35
#43
1!
b1 n0
b1 n1
b0 n2
b1 n3
b0 n4
b0 n5
b0 n6
b0 n7
b1 n8
b0 n9
b0 n10
b0 n11
b0 n12
b0 n13
b0 n14
b1 n15
b0 n16
b0 n17
b0 n18
b0 n19
b0 n20
b0 n21
b1 n22
b1 n23
b0 n24
b1 n25
b1 n26
b1 n27
b0 n28
b1 n29
b1 n30
b0 n31
b1 n32
b1 n33
b0 n34
b1 n35
#44
1!
b1 n0
b0 n1
b0 n2
b0 n3
b0 n4
b1 n5
b0 n6
b1 n7
b0 n8
b0 n9
b0 n10
b0 n11
b0 n12
b0 n13
b1 n14
b1 n15
b0 n16
b1 n17
b1 n18
b1 n19
b0 n20
b1 n21
b1 n22
b0 n23
b1 n24
b1 n25
b0 n26
b0 n27
b1 n28
b0 n29
b0 n30
b0 n31
b1 n32
b0 n33
b0 n34
b0 n35
#45
1!
b0 n0
b0 n1
b0 n2
b0 n3
b0 n4
b0 n5
b1 n6
b1 n7
b0 n8
b1 n9
b1 n10
b1 n11
b0 n12
b1 n13
b1 n14
b0 n15
b1 n16
b1 n17
b0 n18
b0 n19
b1 n20
b0 n21
b0 n22
b0 n23
b1 n24
b0 n25
b0 n26
b0 n27
b0 n28
b1 n29
b0 n30
b1 n31
b0 n32
b0 n33
b0 n34
b0 n35
#46
1!
b0 n0
b1 n1
b1 n2
b1 n3
b0 n4
b1 n5
b1 n6
b0 n7
b1 n8
b1 n9
b0 n10
b0 n11
b1 n12
b0 n13
b0 n14
b0 n15
b1 n16
b0 n17
b0 n18
b0 n19
b0 n20
b1 n21
b1 n22
b1 n23
b0 n24
b0 n25
b0 n26
b0 n27
b0 n28
b0 n29
b1 n30
b1 n31
b0 n32
b1 n33
b1 n34
b1 n35
#47
1!
b1 n0
b1 n1
b0 n2
b0 n3
b1 n4
b0 n5
b0 n6
b0 n7
b1 n8
b0 n9
b0 n10
b0 n11
b0 n12
b0 n13
b0 n14
b1 n15
b0 n16
b0 n17
b0 n18
b0 n19
b0 n20
b0 n21
b1 n22
b1 n23
b0 n24
b1 n25
b1 n26
b1 n27
b0 n28
b1 n29
b1 n30
b0 n31
b1 n32
b1 n33
b0 n34
b0 n35
#48
1!
b1 n0
b0 n1
b0 n2
b0 n3
b0 n4
b0 n5
b0 n6
b1 n7
b0 n8
b0 n9
b0 n10
b0 n11
b0 n12
b0 n13
b1 n14
b1 n15
b0 n16
b1 n17
b1 n18
b1 n19
b0 n20
b1 n21
b1 n22
b0 n23
b1 n24
b1 n25
b0 n26
b0 n27
b1 n28
b0 n29
b0 n30
b0 n31
b1 n32
b0 n33
b0 n34
b0 n35
#49
1!
b0 n0
b0 n1
b0 n2
b0 n3
b0 n4
b0 n5
b1 n6
b1 n7
b0 n8
b1 n9
b1 n10
b1 n11
b0 n12
b1 n13
b1 n14
b0 n15
b1 n16
b1 n17
b0 n18
b0 n19
b1 n20
b0 n21
b0 n22
b0 n23
b1 n24
b0 n25
b0 n26
b0 n27
b0 n28
b0 n29
b0 n30
b1 n31
b0 n32
b0 n33
b0 n34
b0 n35
#50
1!
b0 n0
b1 n1
b1 n2
b1 n3
b0 n4
b1 n5
b1 n6
b0 n7
b1 n8
b1 n9
b0 n10
b0 n11
b1 n12
b0 n13
b0 n14
b0 n15
b1 n16
b0 n17
b0 n18
b0 n19
b0 n20
b0 n21
b0 n22
b1 n23
b0 n24
b0 n25
b0 n26
b0 n27
b0 n28
b0 n29
b1 n30
b1 n31
b0 n32
b1 n33
b1 n34
b1 n35
#51
1!
b1 n0
b1 n1
b0 n2
b0 n3
b1 n4
b0 n5
b0 n6
b0 n7
b1 n8
b0 n9
b0 n10
b0 n11
b0 n12
b1 n13
b0 n14
b1 n15
b0 n16
b0 n17
b0 n18
b0 n19
b0 n20
b0 n21
b1 n22
b1 n23
b0 n24
b1 n25
b1 n26
b1 n27
b0 n28
b1 n29
b1 n30
b0 n31
b1 n32
b1 n33
b0 n34
b1 n35
#52
1!
b1 n0
b0 n1
b0 n2
b0 n3
b0 n4
b1 n5
b0 n6
b1 n7
b0 n8
b0 n9
b0 n10
b0 n11
b0 n12
b0 n13
b1 n14
b1 n15
b0 n16
b1 n17
b1 n18
b1 n19
b0 n20
b1 n21
b1 n22
b0 n23
b1 n24
b1 n25
b0 n26
b1 n27
b0 n28
b0 n29
b0 n30
b0 n31
b1 n32
b0 n33
b0 n34
b0 n35
#53
1!
b0 n0
b0 n1
b0 n2
b0 n3
b0 n4
b0 n5
b1 n6
b1 n7
b0 n8
b1 n9
b1 n10
b1 n11
b0 n12
b1 n13
b1 n14
b0 n15
b1 n16
b1 n17
b0 n18
b1 n19
b0 n20
b0 n21
b0 n22
b0 n23
b1 n24
b0 n25
b0 n26
b0 n27
b0 n28
b1 n29
b1 n30
b1 n31
b0 n32
b0 n33
b0 n34
b0 n35
#54
1!
b0 n0
b1 n1
b1 n2
b1 n3
b0 n4
b1 n5
b1 n6
b0 n7
b1 n8
b1 n9
b0 n10
b1 n11
b0 n12
b0 n13
b0 n14
b0 n15
b1 n16
b0 n17
b0 n18
b0 n19
b0 n20
b0 n21
b0 n22
b1 n23
b0 n24
b0 n25
b0 n26
b0 n27
b0 n28
b0 n29
b1 n30
b1 n31
b0 n32
b1 n33
b1 n34
b1 n35
#55
1!
b1 n0
b1 n1
b0 n2
b1 n3
b0 n4
b0 n5
b0 n6
b0 n7
b1 n8
b0 n9
b0 n10
b0 n11
b0 n12
b1 n13
b0 n14
b1 n15
b0 n16
b0 n17
b0 n18
b0 n19
b0 n20
b0 n21
b1 n22
b1 n23
b0 n24
b1 n25
b1 n26
b1 n27
b0 n28
b1 n29
b1 n30
b0 n31
b1 n32
b1 n33
b0 n34
b0 n35
#56
1!
b1 n0
b0 n1
b0 n2
b0 n3
b0 n4
b1 n5
b0 n6
b1 n7
b0 n8
b0 n9
b0 n10
b0 n11
b0 n12
b0 n13
b1 n14
b1 n15
b0 n16
b1 n17
b1 n18
b1 n19
b0 n20
b1 n21
b1 n22
b0 n23
b1 n24
b1 n25
b0 n26
b0 n27
b1 n28
b0 n29
b0 n30
b0 n31
b1 n32
b0 n33
b0 n34
b0 n35
#57
1!
b0 n0
b0 n1
b0 n2
b0 n3
b0 n4
b0 n5
b1 n6
b1 n7
b0 n8
b1 n9
b1 n10
b1 n11
b0 n12
b1 n13
b1 n14
b0 n15
b1 n16
b1 n17
b0 n18
b0 n19
b1 n20
b0 n21
b0 n22
b0 n23
b1 n24
b0 n25
b0 n26
b0 n27
b0 n28
b1 n29
b1 n30
b1 n31
b0 n32
b0 n33
b0 n34
b0 n35
#58
1!
b0 n0
b1 n1
b1 n2
b1 n3
b0 n4
b1 n5
b1 n6
b0 n7
b1 n8
b1 n9
b0 n10
b0 n11
b1 n12
b0 n13
b0 n14
b0 n15
b1 n16
b0 n17
b0 n18
b0 n19
b0 n20
b0 n21
b0 n22
b1 n23
b0 n24
b0 n25
b0 n26
b0 n27
b0 n28
b0 n29
b1 n30
b1 n31
b0 n32
b1 n33
b1 n34
b1 n35
#59
1!
b1 n0
b1 n1
b0 n2
b0 n3
b1 n4
b0 n5
b0 n6
b0 n7
b1 n8
b0 n9
b0 n10
b0 n11
b0 n12
b0 n13
b0 n14
b1 n15
b0 n16
b0 n17
b0 n18
b0 n19
b0 n20
b0 n21
b1 n22
b1 n23
b0 n24
b1 n25
b1 n26
b1 n27
b0 n28
b1 n29
b1 n30
b0 n31
b1 n32
b1 n33
b0 n34
b0 n35
#60
1!
b1 n0
b0 n1
b0 n2
b0 n3
b0 n4
b0 n5
b0 n6
b1 n7
b0 n8
b0 n9
b0 n10
b0 n11
b0 n12
b0 n13
b1 n14
b1 n15
b0 n16
b1 n17
b1 n18
b1 n19
b0 n20
b1 n21
b1 n22
b0 n23
b1 n24
b1 n25
b0 n26
b0 n27
b1 n28
b0 n29
b0 n30
b0 n31
b1 n32
b0 n33
b0 n34
b0 n35
#61
1!
b0 n0
b0 n1
b0 n2
b0 n3
b0 n4
b0 n5
b1 n6
b1 n7
b0 n8
b1 n9
b1 n10
b1 n11
b0 n12
b1 n13
b1 n14
b0 n15
b1 n16
b1 n17
b0 n18
b0 n19
b1 n20
b0 n21
b0 n22
b0 n23
b1 n24
b0 n25
b0 n26
b0 n27
b0 n28
b0 n29
b0 n30
b1 n31
b0 n32
b0 n33
b0 n34
b0 n35
#62
1!
b0 n0
b1 n1
b1 n2
b1 n3
b0 n4
b1 n5
b1 n6
b0 n7
b1 n8
b1 n9
b0 n10
b0 n11
b1 n12
b0 n13
b0 n14
b0 n15
b1 n16
b0 n17
b0 n18
b0 n19
b0 n20
b1 n21
b0 n22
b1 n23
b0 n24
b0 n25
b0 n26
b0 n27
b0 n28
b0 n29
b1 n30
b1 n31
b0 n32
b1 n33
b1 n34
b1 n35
